{
    "1": ["Что изображено на картинке?", "1652229/b8bef13f2e1ae5e0c931", "что/где/когда", "Что? Гдн? Когда?"],
    "2": ["О чём хотел сказать автор этой картины?", "997614/c6cbc0453420fd98e9f0", "самопожертвова",
          "Это весы над океаном. Если они потеряют равновесие, то голубь в клетке умрёт. Поэтому свободный голюбь не улетает, чтобы его собрат остался жить. Картина о самопожертвовании."],
    "3": ["Какое учреждение зашифровано в этой пиктограмме?", "1030494/d2330b22169659d91c97", "наход/бюр",
          "Бюро находок"],
    "4": [
        "Узоры, сделанные по заказу на обручальных кольца, хпохожи, но неидентичны. Что означают узоры на этих кольцах?",
        "213044/05d37cc24fdb34852093", "голос/жених муж/невест жен",
        "Это осциллограммы записи голосов жениха и невесты: «согласен» и «согласна»."],
    "5": ["Как с помощью японской шляпы воины-ниндзя проводили испытания на скорость?", "213044/9761ad174aa5abc53dfc",
          "груд/бе/г ж/шляп/возд",
          "При сдаче зачета бежать нужно так быстро, чтобы встречный поток воздуха удерживал шляпу на груди у воина, у ниндзя (без рук)."]

}